The Effective Number of Parties in the Electorate by Year and Region | Data * Analysis + R
…
For those who do not know the concept of an “Effective Number of Parties”, you can read a post back in 2014, or go to Wikipedia for summarizing details. In short, the effective number of parties is the number of viable or important political parties in a party system that includes parties of unequal size. This measure is given by the inverse of the Herfindahl-Hirschman Index (HHI) or the inverse participation ratio (IPR) in physics. The HHI is calculated by taking the voting share of each party in the electorate, squaring them, and summing the result: \(HHI = s1^2 + s2^2 + s3^2 + ... + sn^2\) (where s is the voting share of each party expressed as a whole number. In mathematical notation, it looks like:

\[HHI = \sum_{i=1}^N s_i^2\]

For now, I’ll be using dplyr to estimate the effective number of parties by year and region, but the SciencesPo package has a function named politicalDiversity that can calculate several indices used by political science scholars, which I’ll be addressing in future posts.

ENPpid3 <- ANES %>% 
group_by(Year, Region) %>%
  summarise(invHHI = sum(table(PID3))^2 / sum(table(PID3)^2)) %>%
filter(!is.na(Region))

print(ENPpid3)

Source: local data frame [112 x 3]
Groups: Year [28]

    Year        Region   invHHI
   <dbl>        <fctr>    <dbl>
1   1952     Northeast 2.251207
2   1952 North Central 2.231502
3   1952         South 1.538712
4   1952          West 2.119764
5   1956     Northeast 2.352651
6   1956 North Central 2.419891
7   1956         South 1.816944
8   1956          West 2.395399
9   1958     Northeast 2.296220
10  1958 North Central 2.247543
# ... with 102 more rows
…
